Processor Microarchitecture/Lab_4_Adder/Lab_4_Adder.sim/sim_1/behav/simulate.log
Vivado Simulator 2017.2
Time resolution is 1 ps
Error at input A= 0 B= 0 at time=                   2
Error at input A= 0 B= 1 at time=                   4
Error at input A= 0 B= 2 at time=                   6
Error at input A= 0 B= 3 at time=                   8
Error at input A= 0 B= 4 at time=                  10
Error at input A= 0 B= 5 at time=                  12
Error at input A= 0 B= 6 at time=                  14
Error at input A= 0 B= 7 at time=                  16
Error at input A= 0 B= 8 at time=                  18
Error at input A= 0 B= 9 at time=                  20
Error at input A= 0 B=10 at time=                  22
Error at input A= 0 B=11 at time=                  24
Error at input A= 0 B=12 at time=                  26
Error at input A= 0 B=13 at time=                  28
Error at input A= 0 B=14 at time=                  30
Error at input A= 0 B=15 at time=                  32
Error at input A= 1 B= 0 at time=                  34
Error at input A= 1 B= 1 at time=                  36
Error at input A= 1 B= 2 at time=                  38
Error at input A= 1 B= 3 at time=                  40
Error at input A= 1 B= 4 at time=                  42
Error at input A= 1 B= 5 at time=                  44
Error at input A= 1 B= 6 at time=                  46
Error at input A= 1 B= 7 at time=                  48
Error at input A= 1 B= 8 at time=                  50
Error at input A= 1 B= 9 at time=                  52
Error at input A= 1 B=10 at time=                  54
Error at input A= 1 B=11 at time=                  56
Error at input A= 1 B=12 at time=                  58
Error at input A= 1 B=13 at time=                  60
Error at input A= 1 B=14 at time=                  62
Error at input A= 1 B=15 at time=                  64
Error at input A= 2 B= 0 at time=                  66
Error at input A= 2 B= 1 at time=                  68
Error at input A= 2 B= 2 at time=                  70
Error at input A= 2 B= 3 at time=                  72
Error at input A= 2 B= 4 at time=                  74
Error at input A= 2 B= 5 at time=                  76
Error at input A= 2 B= 6 at time=                  78
Error at input A= 2 B= 7 at time=                  80
Error at input A= 2 B= 8 at time=                  82
Error at input A= 2 B= 9 at time=                  84
Error at input A= 2 B=10 at time=                  86
Error at input A= 2 B=11 at time=                  88
Error at input A= 2 B=12 at time=                  90
Error at input A= 2 B=13 at time=                  92
Error at input A= 2 B=14 at time=                  94
Error at input A= 2 B=15 at time=                  96
Error at input A= 3 B= 0 at time=                  98
Error at input A= 3 B= 1 at time=                 100
Error at input A= 3 B= 2 at time=                 102
Error at input A= 3 B= 3 at time=                 104
Error at input A= 3 B= 4 at time=                 106
Error at input A= 3 B= 5 at time=                 108
Error at input A= 3 B= 6 at time=                 110
Error at input A= 3 B= 7 at time=                 112
Error at input A= 3 B= 8 at time=                 114
Error at input A= 3 B= 9 at time=                 116
Error at input A= 3 B=10 at time=                 118
Error at input A= 3 B=11 at time=                 120
Error at input A= 3 B=12 at time=                 122
Error at input A= 3 B=13 at time=                 124
Error at input A= 3 B=14 at time=                 126
Error at input A= 3 B=15 at time=                 128
Error at input A= 4 B= 0 at time=                 130
Error at input A= 4 B= 1 at time=                 132
Error at input A= 4 B= 2 at time=                 134
Error at input A= 4 B= 3 at time=                 136
Error at input A= 4 B= 4 at time=                 138
Error at input A= 4 B= 5 at time=                 140
Error at input A= 4 B= 6 at time=                 142
Error at input A= 4 B= 7 at time=                 144
Error at input A= 4 B= 8 at time=                 146
Error at input A= 4 B= 9 at time=                 148
Error at input A= 4 B=10 at time=                 150
Error at input A= 4 B=11 at time=                 152
Error at input A= 4 B=12 at time=                 154
Error at input A= 4 B=13 at time=                 156
Error at input A= 4 B=14 at time=                 158
Error at input A= 4 B=15 at time=                 160
Error at input A= 5 B= 0 at time=                 162
Error at input A= 5 B= 1 at time=                 164
Error at input A= 5 B= 2 at time=                 166
Error at input A= 5 B= 3 at time=                 168
Error at input A= 5 B= 4 at time=                 170
Error at input A= 5 B= 5 at time=                 172
Error at input A= 5 B= 6 at time=                 174
Error at input A= 5 B= 7 at time=                 176
Error at input A= 5 B= 8 at time=                 178
Error at input A= 5 B= 9 at time=                 180
Error at input A= 5 B=10 at time=                 182
Error at input A= 5 B=11 at time=                 184
Error at input A= 5 B=12 at time=                 186
Error at input A= 5 B=13 at time=                 188
Error at input A= 5 B=14 at time=                 190
Error at input A= 5 B=15 at time=                 192
Error at input A= 6 B= 0 at time=                 194
Error at input A= 6 B= 1 at time=                 196
Error at input A= 6 B= 2 at time=                 198
Error at input A= 6 B= 3 at time=                 200
Error at input A= 6 B= 4 at time=                 202
Error at input A= 6 B= 5 at time=                 204
Error at input A= 6 B= 6 at time=                 206
Error at input A= 6 B= 7 at time=                 208
Error at input A= 6 B= 8 at time=                 210
Error at input A= 6 B= 9 at time=                 212
Error at input A= 6 B=10 at time=                 214
Error at input A= 6 B=11 at time=                 216
Error at input A= 6 B=12 at time=                 218
Error at input A= 6 B=13 at time=                 220
Error at input A= 6 B=14 at time=                 222
Error at input A= 6 B=15 at time=                 224
Error at input A= 7 B= 0 at time=                 226
Error at input A= 7 B= 1 at time=                 228
Error at input A= 7 B= 2 at time=                 230
Error at input A= 7 B= 3 at time=                 232
Error at input A= 7 B= 4 at time=                 234
Error at input A= 7 B= 5 at time=                 236
Error at input A= 7 B= 6 at time=                 238
Error at input A= 7 B= 7 at time=                 240
Error at input A= 7 B= 8 at time=                 242
Error at input A= 7 B= 9 at time=                 244
Error at input A= 7 B=10 at time=                 246
Error at input A= 7 B=11 at time=                 248
Error at input A= 7 B=12 at time=                 250
Error at input A= 7 B=13 at time=                 252
Error at input A= 7 B=14 at time=                 254
Error at input A= 7 B=15 at time=                 256
Error at input A= 8 B= 0 at time=                 258
Error at input A= 8 B= 1 at time=                 260
Error at input A= 8 B= 2 at time=                 262
Error at input A= 8 B= 3 at time=                 264
Error at input A= 8 B= 4 at time=                 266
Error at input A= 8 B= 5 at time=                 268
Error at input A= 8 B= 6 at time=                 270
Error at input A= 8 B= 7 at time=                 272
Error at input A= 8 B= 8 at time=                 274
Error at input A= 8 B= 9 at time=                 276
Error at input A= 8 B=10 at time=                 278
Error at input A= 8 B=11 at time=                 280
Error at input A= 8 B=12 at time=                 282
Error at input A= 8 B=13 at time=                 284
Error at input A= 8 B=14 at time=                 286
Error at input A= 8 B=15 at time=                 288
Error at input A= 9 B= 0 at time=                 290
Error at input A= 9 B= 1 at time=                 292
Error at input A= 9 B= 2 at time=                 294
Error at input A= 9 B= 3 at time=                 296
Error at input A= 9 B= 4 at time=                 298
Error at input A= 9 B= 5 at time=                 300
Error at input A= 9 B= 6 at time=                 302
Error at input A= 9 B= 7 at time=                 304
Error at input A= 9 B= 8 at time=                 306
Error at input A= 9 B= 9 at time=                 308
Error at input A= 9 B=10 at time=                 310
Error at input A= 9 B=11 at time=                 312
Error at input A= 9 B=12 at time=                 314
Error at input A= 9 B=13 at time=                 316
Error at input A= 9 B=14 at time=                 318
Error at input A= 9 B=15 at time=                 320
Error at input A=10 B= 0 at time=                 322
Error at input A=10 B= 1 at time=                 324
Error at input A=10 B= 2 at time=                 326
Error at input A=10 B= 3 at time=                 328
Error at input A=10 B= 4 at time=                 330
Error at input A=10 B= 5 at time=                 332
Error at input A=10 B= 6 at time=                 334
Error at input A=10 B= 7 at time=                 336
Error at input A=10 B= 8 at time=                 338
Error at input A=10 B= 9 at time=                 340
Error at input A=10 B=10 at time=                 342
Error at input A=10 B=11 at time=                 344
Error at input A=10 B=12 at time=                 346
Error at input A=10 B=13 at time=                 348
Error at input A=10 B=14 at time=                 350
Error at input A=10 B=15 at time=                 352
Error at input A=11 B= 0 at time=                 354
Error at input A=11 B= 1 at time=                 356
Error at input A=11 B= 2 at time=                 358
Error at input A=11 B= 3 at time=                 360
Error at input A=11 B= 4 at time=                 362
Error at input A=11 B= 5 at time=                 364
Error at input A=11 B= 6 at time=                 366
Error at input A=11 B= 7 at time=                 368
Error at input A=11 B= 8 at time=                 370
Error at input A=11 B= 9 at time=                 372
Error at input A=11 B=10 at time=                 374
Error at input A=11 B=11 at time=                 376
Error at input A=11 B=12 at time=                 378
Error at input A=11 B=13 at time=                 380
Error at input A=11 B=14 at time=                 382
Error at input A=11 B=15 at time=                 384
Error at input A=12 B= 0 at time=                 386
Error at input A=12 B= 1 at time=                 388
Error at input A=12 B= 2 at time=                 390
Error at input A=12 B= 3 at time=                 392
Error at input A=12 B= 4 at time=                 394
Error at input A=12 B= 5 at time=                 396
Error at input A=12 B= 6 at time=                 398
Error at input A=12 B= 7 at time=                 400
Error at input A=12 B= 8 at time=                 402
Error at input A=12 B= 9 at time=                 404
Error at input A=12 B=10 at time=                 406
Error at input A=12 B=11 at time=                 408
Error at input A=12 B=12 at time=                 410
Error at input A=12 B=13 at time=                 412
Error at input A=12 B=14 at time=                 414
Error at input A=12 B=15 at time=                 416
Error at input A=13 B= 0 at time=                 418
Error at input A=13 B= 1 at time=                 420
Error at input A=13 B= 2 at time=                 422
Error at input A=13 B= 3 at time=                 424
Error at input A=13 B= 4 at time=                 426
Error at input A=13 B= 5 at time=                 428
Error at input A=13 B= 6 at time=                 430
Error at input A=13 B= 7 at time=                 432
Error at input A=13 B= 8 at time=                 434
Error at input A=13 B= 9 at time=                 436
Error at input A=13 B=10 at time=                 438
Error at input A=13 B=11 at time=                 440
Error at input A=13 B=12 at time=                 442
Error at input A=13 B=13 at time=                 444
Error at input A=13 B=14 at time=                 446
Error at input A=13 B=15 at time=                 448
Error at input A=14 B= 0 at time=                 450
Error at input A=14 B= 1 at time=                 452
Error at input A=14 B= 2 at time=                 454
Error at input A=14 B= 3 at time=                 456
Error at input A=14 B= 4 at time=                 458
Error at input A=14 B= 5 at time=                 460
Error at input A=14 B= 6 at time=                 462
Error at input A=14 B= 7 at time=                 464
Error at input A=14 B= 8 at time=                 466
Error at input A=14 B= 9 at time=                 468
Error at input A=14 B=10 at time=                 470
Error at input A=14 B=11 at time=                 472
Error at input A=14 B=12 at time=                 474
Error at input A=14 B=13 at time=                 476
Error at input A=14 B=14 at time=                 478
Error at input A=14 B=15 at time=                 480
Error at input A=15 B= 0 at time=                 482
Error at input A=15 B= 1 at time=                 484
Error at input A=15 B= 2 at time=                 486
Error at input A=15 B= 3 at time=                 488
Error at input A=15 B= 4 at time=                 490
Error at input A=15 B= 5 at time=                 492
Error at input A=15 B= 6 at time=                 494
Error at input A=15 B= 7 at time=                 496
Error at input A=15 B= 8 at time=                 498
Error at input A=15 B= 9 at time=                 500
Error at input A=15 B=10 at time=                 502
Error at input A=15 B=11 at time=                 504
Error at input A=15 B=12 at time=                 506
Error at input A=15 B=13 at time=                 508
Error at input A=15 B=14 at time=                 510
Error at input A=15 B=15 at time=                 512
There were         256 errors in the inferred adder
